file_read.vcd
$date
  Sun May 13 09:00:26 2018
$end
$version
  GHDL v0
$end
$timescale
  1 fs
$end
$var reg 1 ! clock_cycle $end
$var reg 1 " f $end
$var reg 1 # d $end
$var reg 1 $ e $end
$var reg 1 % m $end
$var reg 1 & w $end
$var reg 1 ' s_flag $end
$var reg 1 ( o_flag $end
$var reg 1 ) u_flag $end
$var reg 1 * z_flag $end
$var reg 1 + pc0 $end
$var reg 1 , pc1 $end
$var reg 1 - pc2 $end
$var reg 1 . pc3 $end
$enddefinitions $end
#0
0!
0"
0#
0$
0%
0&
0'
0(
0)
0*
1+
1,
1-
1.
#10000000
1!
1"
0+
0,
0-
0.
#20000000
0!
0"
1+
1,
1-
1.
#30000000
1!
1#
#40000000
0!
0#
#50000000
1!
1$
#60000000
0!
0$
#70000000
1!
1%
#80000000
0!
0%
#90000000
1!
1&
#100000000
0!
0&
#110000000
1!
1"
0,
0-
0.
#120000000
0!
0"
1,
1-
1.
#130000000
1!
1#
#140000000
0!
0#
#150000000
1!
1$
#160000000
0!
0$
#170000000
1!
1%
#180000000
0!
0%
#190000000
1!
1&
#200000000
0!
0&
#210000000
1!
1"
0+
0-
0.
#220000000
0!
0"
1+
1-
1.
#230000000
1!
1#
#240000000
0!
0#
#250000000
1!
1$
1(
#260000000
0!
0$
0(
#270000000
1!
1%
#280000000
0!
0%
#290000000
1!
1&
#300000000
0!
0&
#310000000
1!
1"
0-
0.
#320000000
0!
0"
1-
1.
#330000000
1!
1#
#340000000
0!
0#
#350000000
1!
1$
1'
1)
#360000000
0!
0$
0'
0)
#370000000
1!
1%
#380000000
0!
0%
#390000000
1!
1&
#400000000
0!
0&
#410000000
1!
1"
0+
0,
0.
#420000000
0!
0"
1+
1,
1.
#430000000
1!
1#
#440000000
0!
0#
#450000000
1!
1$
#460000000
0!
0$
#470000000
1!
1%
#480000000
0!
0%
#490000000
1!
1&
#500000000
0!
0&
#510000000
1!
1"
0,
0.
#520000000
0!
0"
1,
1.
#530000000
1!
1#
#540000000
0!
0#
#550000000
1!
1$
1*
#560000000
0!
0$
0*
#570000000
1!
1%
#580000000
0!
0%
#590000000
1!
1&
#600000000
0!
0&
#610000000
1!
1"
0+
0.
#620000000
0!
0"
1+
1.
#630000000
1!
1#
#640000000
0!
0#
#650000000
1!
1$
#660000000
0!
0$
#670000000
1!
1%
#680000000
0!
0%
#690000000
1!
1&
#700000000
0!
0&
